
 *******************************************************************************

         NASA-GLENN CHEMICAL EQUILIBRIUM PROGRAM CEA2, MAY 21, 2004
                   BY  BONNIE MCBRIDE AND SANFORD GORDON
      REFS: NASA RP-1311, PART I, 1994 AND NASA RP-1311, PART II, 1996

 *******************************************************************************



 problem
     rocket  equilibrium  tcest,k=3800
   p,bar=70,
   sup,ae/at=40,
 react
   oxid=NH4CLO4(I) wt=68  t,k=300
   fuel=AL(cr) wt=18  t,k=300
   fuel=HTPB  wt=14  t,k=300
     h,kj/mol=-58  C 7.075 H 10.65 O 0.223 N 0.063
 output
     plot p t cp gam
 end

 OPTIONS: TP=F  HP=F  SP=F  TV=F  UV=F  SV=F  DETN=F  SHOCK=F  REFL=F  INCD=F
 RKT=T  FROZ=F  EQL=T  IONS=F  SIUNIT=T  DEBUGF=F  SHKDBG=F  DETDBG=F  TRNSPT=F

 TRACE= 0.00E+00  S/R= 0.000000E+00  H/R= 0.000000E+00  U/R= 0.000000E+00

 Pc,BAR =    70.000000

 Pc/P =

 SUBSONIC AREA RATIOS =

 SUPERSONIC AREA RATIOS =    40.0000

 NFZ=  1  Mdot/Ac= 0.000000E+00  Ac/At= 0.000000E+00

    REACTANT          WT.FRAC   (ENERGY/R),K   TEMP,K  DENSITY
        EXPLODED FORMULA
 O: NH4CLO4(I)       1.000000  -0.355439E+05   300.00  0.0000
          N  1.00000  H  4.00000  CL 1.00000  O  4.00000
 F: AL(cr)           0.562500   0.538838E+01   300.00  0.0000
          AL 1.00000
 F: HTPB             0.437500  -0.697576E+04   300.00  0.0000
          C  7.07500  H 10.65000  O  0.22300  N  0.06300

  SPECIES BEING CONSIDERED IN THIS SYSTEM
 (CONDENSED PHASE MAY HAVE NAME LISTED SEVERAL TIMES)
  LAST thermo.inp UPDATE:    9/09/04

  g12/97  *AL              tpis96  ALC              tpis96  ALC2           
  tpis96  ALCL             tpis96  ALCL2            tpis96  ALCL3          
  tpis96  ALH              tpis96  ALHCL            tpis96  ALHCL2         
  tpis96  ALH2             tpis96  ALH2CL           tpis96  ALH3           
  tpis96  ALN              tpis96  *ALO             tpis96  ALOCL          
  tpis96  ALOCL2           tpis96  ALOH             tpis96  ALOHCL         
  tpis96  ALOHCL2          tpis96  ALO2             tpis96  AL(OH)2        
  tpis96  AL(OH)2CL        tpis96  AL(OH)3          tpis96  AL2            
  tpis96  AL2C2            tpis96  AL2CL6           tpis96  AL2O           
  tpis96  AL2O2            tpis96  AL2O3            g 7/97  *C             
  g 8/99  CCL              g 8/99  CCL2             n12/93  CCL3           
  tpis91  CCL4             tpis79  *CH              g 9/99  CHCL           
  n12/93  CHCL2            g 7/99  CHCL3            g 4/02  CH2            
  g12/99  CH2CL            tpis91  CH2CL2           g 4/02  CH3            
  tpis91  CH3CL            g11/00  CH2OH            g 7/00  CH3O           
  g 8/99  CH4              g 7/00  CH3OH            srd 01  CH3OOH         
  g 8/99  *CN              g12/99  CNN              tpis79  *CO            
  tpis91  COCL             tpis91  COCL2            tpis91  COHCL          
  g 9/99  *CO2             tpis91  COOH             tpis91  *C2            
  tpis91  C2CL             g 5/02  C2CL2            tpis91  C2CL3          
  g 5/02  C2CL4            g 5/02  C2CL6            g 6/01  C2H            
  g 5/02  C2HCL            g 5/02  C2HCL3           g 1/91  C2H2,acetylene 
  g 5/01  C2H2,vinylidene  tpis91  C2H2CL2          g 4/02  CH2CO,ketene   
  g 3/02  O(CH)2O          srd 01  HO(CO)2OH        g 7/01  C2H3,vinyl     
  g 5/02  C2H3CL           srd 01  CH2CL-COOH       g 9/00  CH3CN          
  g 6/96  CH3CO,acetyl     g 1/00  C2H4             g 8/88  C2H4O,ethylen-o
  g 8/88  CH3CHO,ethanal   g 6/00  CH3COOH          srd 01  OHCH2COOH      
  g 7/00  C2H5             g 7/00  C2H6             g 8/88  CH3N2CH3       
  g 8/88  C2H5OH           g 7/00  CH3OCH3          srd 01  CH3O2CH3       
  g 7/00  CCN              tpis91  CNC              srd 01  OCCN           
  tpis79  C2N2             g 8/00  C2O              tpis79  *C3            
  n 4/98  C3H3,1-propynl   n 4/98  C3H3,2-propynl   g 2/00  C3H4,allene    
  g 1/00  C3H4,propyne     g 5/90  C3H4,cyclo-      g 3/01  C3H5,allyl     
  g 2/00  C3H6,propylene   g 1/00  C3H6,cyclo-      g 6/01  C3H6O,propylox 
  g 6/97  C3H6O,acetone    g 1/02  C3H6O,propanal   g 7/01  C3H7,n-propyl  
  g 9/85  C3H7,i-propyl    g 2/00  C3H8             g 2/00  C3H8O,1propanol
  g 2/00  C3H8O,2propanol  srd 01  CNCOCN           g 7/88  C3O2           
  g tpis  *C4              g 7/01  C4H2,butadiyne   g 8/00  C4H4,1,3-cyclo-
  n10/92  C4H6,butadiene   n10/93  C4H6,1butyne     n10/93  C4H6,2butyne   
  g 8/00  C4H6,cyclo-      n 4/88  C4H8,1-butene    n 4/88  C4H8,cis2-buten
  n 4/88  C4H8,tr2-butene  n 4/88  C4H8,isobutene   g 8/00  C4H8,cyclo-    
  g10/00  (CH3COOH)2       n10/84  C4H9,n-butyl     n10/84  C4H9,i-butyl   
  g 1/93  C4H9,s-butyl     g 1/93  C4H9,t-butyl     g12/00  C4H10,n-butane 
  g 8/00  C4H10,isobutane  g 6/01  C4N2             g 8/00  *C5            
  g 5/90  C5H6,1,3cyclo-   g 1/93  C5H8,cyclo-      n 4/87  C5H10,1-pentene
  g 2/01  C5H10,cyclo-     n10/84  C5H11,pentyl     g 1/93  C5H11,t-pentyl 
  n10/85  C5H12,n-pentane  n10/85  C5H12,i-pentane  n10/85  CH3C(CH3)2CH3  
  g 2/93  C6H2             g11/00  C6H5,phenyl      g 8/00  C6H5O,phenoxy  
  g 8/00  C6H6             g 8/00  C6H5OH,phenol    g 1/93  C6H10,cyclo-   
  n 4/87  C6H12,1-hexene   g 6/90  C6H12,cyclo-     n10/83  C6H13,n-hexyl  
  g 6/01  C6H14,n-hexane   g 7/01  C7H7,benzyl      g 1/93  C7H8           
  g12/00  C7H8O,cresol-mx  n 4/87  C7H14,1-heptene  n10/83  C7H15,n-heptyl 
  n10/85  C7H16,n-heptane  n10/85  C7H16,2-methylh  n 4/89  C8H8,styrene   
  n10/86  C8H10,ethylbenz  n 4/87  C8H16,1-octene   n10/83  C8H17,n-octyl  
  n 4/85  C8H18,n-octane   n 4/85  C8H18,isooctane  n10/83  C9H19,n-nonyl  
  g 3/01  C10H8,naphthale  n10/83  C10H21,n-decyl   g 8/00  C12H9,o-bipheny
  g 8/00  C12H10,biphenyl  g 7/97  *CL              g 6/95  CLCN           
  tpis89  CLO              g 7/93  CLO2             tpis89  CL2            
  tpis89  CL2O             g 6/97  *H               tpis96  HALO           
  tpis96  HALO2            g 6/01  HCN              g 1/01  HCO            
  tpis89  HCCN             g 6/01  HCCO             tpis89  HCL            
  g 6/01  HNC              g 7/00  HNCO             g10/01  HNO            
  tpis89  HNO2             g 5/99  HNO3             g 1/01  HOCL           
  g 4/02  HO2              tpis78  *H2              g 5/01  HCHO,formaldehy
  g 6/01  HCOOH            g 8/89  H2O              g 6/99  H2O2           
  g 6/01  (HCOOH)2         g 5/97  *N               g 6/01  NCO            
  g 4/99  *NH              g 3/01  NH2              tpis89  NH3            
  tpis89  NH2OH            tpis89  *NO              g 4/99  NOCL           
  g 4/99  NO2              g 4/99  NO2CL            j12/64  NO3            
  tpis78  *N2              g 6/01  NCN              g 5/99  N2H2           
  tpis89  NH2NO2           g 4/99  N2H4             g 4/99  N2O            
  g 4/99  N2O3             tpis89  N2O4             g 4/99  N2O5           
  tpis89  N3               g 4/99  N3H              g 5/97  *O             
  g 4/02  *OH              tpis89  *O2              g 8/01  O3             
  coda89  AL(cr)           coda89  AL(L)            tpis96  ALCL3(cr)      
  tpis96  ALCL3(L)         tpis96  ALH3(a)          tpis96  ALN(cr)        
  tpis96  ALN(cr)          tpis96  ALN(L)           tpis96  ALN(L)         
  tpis96  AL(OH)3(a)       tpis96  AL2O3(a)         tpis96  AL2O3(a)       
  tpis96  AL2O3(a)         tpis96  AL2O3(L)         tpis96  AL4C3(cr)      
  tpis96  AL4C3(cr)        n 4/83  C(gr)            n 4/83  C(gr)          
  n 4/83  C(gr)            g11/99  H2O(cr)          g 8/01  H2O(L)         
  g 8/01  H2O(L)           j 9/65  NH4CL(II)        j 9/65  NH4CL(III)     
  j 9/65  NH4CL(III)     

 O/F =   2.125000

                       EFFECTIVE FUEL     EFFECTIVE OXIDANT        MIXTURE
 ENTHALPY                  h(2)/R              h(1)/R               h0/R
 (KG-MOL)(K)/KG       -0.30357681E+02     -0.30252904E+03     -0.21543420E+03

 KG-FORM.WT./KG             bi(2)               bi(1)               b0i
  *N                   0.27518319E-03      0.85114308E-02      0.58758315E-02
  *H                   0.46519063E-01      0.34045723E-01      0.38037192E-01
  *CL                  0.00000000E+00      0.85114308E-02      0.57877729E-02
  *O                   0.97406113E-03      0.34045723E-01      0.23462791E-01
  *AL                  0.20847588E-01      0.00000000E+00      0.66712283E-02
  *C                   0.30903509E-01      0.00000000E+00      0.98891228E-02

 POINT ITN      T            N           H           CL          O 
                    AL          C 
   1   21    2708.289     -13.121      -8.769     -21.555     -19.835
                 -13.507     -10.947
 ADD  AL2O3(L)       
   1    6    3404.097     -13.556      -9.071     -20.121     -18.497
                 -16.481     -12.122
 Pinf/Pt = 1.731129
   2    4    3211.331     -13.716      -9.225     -20.441     -18.978
                 -16.977     -12.194
 Pinf/Pt = 1.733645
   2    2    3210.825     -13.716      -9.225     -20.442     -18.979
                 -16.979     -12.194
   3    5    1426.111     -15.191     -10.731     -26.152     -29.611
                 -32.596      -9.716
 PHASE CHANGE, REPLACE  AL2O3(L)       WITH  AL2O3(a)       
   3    2    1529.832     -15.298     -10.836     -25.730     -28.254
                 -31.869     -10.648
   3    3    1612.845     -15.224     -10.760     -25.281     -27.302
                 -30.213     -11.000
   3    2    1613.007     -15.224     -10.760     -25.280     -27.300
                 -30.210     -11.001





              THEORETICAL ROCKET PERFORMANCE ASSUMING EQUILIBRIUM

           COMPOSITION DURING EXPANSION FROM INFINITE AREA COMBUSTOR

 Pin =  1015.3 PSIA
 CASE =                

             REACTANT                    WT FRACTION      ENERGY      TEMP
                                          (SEE NOTE)     KJ/KG-MOL      K  
 OXIDANT     NH4CLO4(I)                   1.0000000   -295529.716    300.000
 FUEL        AL(cr)                       0.5625000        44.802    300.000
 FUEL        HTPB                         0.4375000    -58000.000    300.000

 O/F=    2.12500  %FUEL= 32.000000  R,EQ.RATIO= 1.851663  PHI,EQ.RATIO= 2.551340

                 CHAMBER   THROAT     EXIT
 Pinf/P            1.0000   1.7336   398.71
 P, BAR            70.000   40.377  0.17557
 T, K             3404.10  3210.82  1613.01
 RHO, KG/CU M    6.9066 0 4.2544 0 3.7681-2
 H, KJ/KG        -1791.23 -2331.04 -6092.21
 U, KJ/KG        -2804.75 -3280.11 -6558.14
 G, KJ/KG        -34104.1 -32809.3 -21403.4
 S, KJ/(KG)(K)     9.4923   9.4923   9.4923

 M, (1/n)          27.926   28.129   28.784
 MW, MOL WT        25.758   25.849   26.262
 (dLV/dLP)t      -1.01590 -1.01208 -1.00003
 (dLV/dLT)p        1.2853   1.2262   1.0010
 Cp, KJ/(KG)(K)    3.6712   3.3416   1.7216
 GAMMAs            1.1339   1.1376   1.2021
 SON VEL,M/SEC     1072.0   1039.1    748.4
 MACH NUMBER        0.000    1.000    3.919

 PERFORMANCE PARAMETERS

 Ae/At                      1.0000   40.000
 CSTAR, M/SEC               1583.5   1583.5
 CF                         0.6562   1.8522
 Ivac, M/SEC                1952.4   3091.8
 Isp, M/SEC                 1039.0   2932.9


 MOLE FRACTIONS

 *AL              0.00014  0.00007  0.00000
 ALCL             0.00720  0.00479  0.00000
 ALCL2            0.00065  0.00042  0.00000
 ALCL3            0.00025  0.00020  0.00000
 ALH              0.00005  0.00002  0.00000
 ALHCL            0.00004  0.00002  0.00000
 ALHCL2           0.00007  0.00004  0.00000
 *ALO             0.00016  0.00007  0.00000
 ALOCL            0.00040  0.00024  0.00000
 ALOH             0.00493  0.00288  0.00000
 ALOHCL           0.00080  0.00044  0.00000
 ALOHCL2          0.00105  0.00075  0.00000
 AL(OH)2          0.00020  0.00009  0.00000
 AL(OH)2CL        0.00030  0.00018  0.00000
 AL(OH)3          0.00007  0.00004  0.00000
 AL2O             0.00008  0.00003  0.00000
 AL2O2            0.00002  0.00001  0.00000
 *CO              0.24552  0.24661  0.24231
 *CO2             0.00914  0.00898  0.01740
 *CL              0.00823  0.00694  0.00003
 CL2              0.00002  0.00001  0.00000
 *H               0.03026  0.02465  0.00008
 HALO2            0.00001  0.00001  0.00000
 HCN              0.00002  0.00001  0.00000
 HCO              0.00003  0.00002  0.00000
 HCL              0.12777  0.13393  0.15197
 *H2              0.31053  0.31800  0.34717
 H2O              0.09403  0.09040  0.07627
 *NH              0.00001  0.00000  0.00000
 NH2              0.00001  0.00000  0.00000
 NH3              0.00002  0.00001  0.00000
 *NO              0.00026  0.00015  0.00000
 *N2              0.07551  0.07585  0.07716
 *O               0.00023  0.00013  0.00000
 *OH              0.00429  0.00292  0.00000
 *O2              0.00003  0.00001  0.00000
 AL2O3(a)         0.00000  0.00000  0.08760
 AL2O3(L)         0.07764  0.08105  0.00000

  * THERMODYNAMIC PROPERTIES FITTED TO 20000.K

    PRODUCTS WHICH WERE CONSIDERED BUT WHOSE MOLE FRACTIONS
    WERE LESS THAN 5.000000E-06 FOR ALL ASSIGNED CONDITIONS

 ALC             ALC2            ALH2            ALH2CL          ALH3           
 ALN             ALOCL2          ALO2            AL2             AL2C2          
 AL2CL6          AL2O3           *C              CCL             CCL2           
 CCL3            CCL4            *CH             CHCL            CHCL2          
 CHCL3           CH2             CH2CL           CH2CL2          CH3            
 CH3CL           CH2OH           CH3O            CH4             CH3OH          
 CH3OOH          *CN             CNN             COCL            COCL2          
 COHCL           COOH            *C2             C2CL            C2CL2          
 C2CL3           C2CL4           C2CL6           C2H             C2HCL          
 C2HCL3          C2H2,acetylene  C2H2,vinylidene C2H2CL2         CH2CO,ketene   
 O(CH)2O         HO(CO)2OH       C2H3,vinyl      C2H3CL          CH2CL-COOH     
 CH3CN           CH3CO,acetyl    C2H4            C2H4O,ethylen-o CH3CHO,ethanal 
 CH3COOH         OHCH2COOH       C2H5            C2H6            CH3N2CH3       
 C2H5OH          CH3OCH3         CH3O2CH3        CCN             CNC            
 OCCN            C2N2            C2O             *C3             C3H3,1-propynl 
 C3H3,2-propynl  C3H4,allene     C3H4,propyne    C3H4,cyclo-     C3H5,allyl     
 C3H6,propylene  C3H6,cyclo-     C3H6O,propylox  C3H6O,acetone   C3H6O,propanal 
 C3H7,n-propyl   C3H7,i-propyl   C3H8            C3H8O,1propanol C3H8O,2propanol
 CNCOCN          C3O2            *C4             C4H2,butadiyne  C4H4,1,3-cyclo-
 C4H6,butadiene  C4H6,1butyne    C4H6,2butyne    C4H6,cyclo-     C4H8,1-butene  
 C4H8,cis2-buten C4H8,tr2-butene C4H8,isobutene  C4H8,cyclo-     (CH3COOH)2     
 C4H9,n-butyl    C4H9,i-butyl    C4H9,s-butyl    C4H9,t-butyl    C4H10,n-butane 
 C4H10,isobutane C4N2            *C5             C5H6,1,3cyclo-  C5H8,cyclo-    
 C5H10,1-pentene C5H10,cyclo-    C5H11,pentyl    C5H11,t-pentyl  C5H12,n-pentane
 C5H12,i-pentane CH3C(CH3)2CH3   C6H2            C6H5,phenyl     C6H5O,phenoxy  
 C6H6            C6H5OH,phenol   C6H10,cyclo-    C6H12,1-hexene  C6H12,cyclo-   
 C6H13,n-hexyl   C6H14,n-hexane  C7H7,benzyl     C7H8            C7H8O,cresol-mx
 C7H14,1-heptene C7H15,n-heptyl  C7H16,n-heptane C7H16,2-methylh C8H8,styrene   
 C8H10,ethylbenz C8H16,1-octene  C8H17,n-octyl   C8H18,n-octane  C8H18,isooctane
 C9H19,n-nonyl   C10H8,naphthale C10H21,n-decyl  C12H9,o-bipheny C12H10,biphenyl
 CLCN            CLO             CLO2            CL2O            HALO           
 HCCN            HCCO            HNC             HNCO            HNO            
 HNO2            HNO3            HOCL            HO2             HCHO,formaldehy
 HCOOH           H2O2            (HCOOH)2        *N              NCO            
 NH2OH           NOCL            NO2             NO2CL           NO3            
 NCN             N2H2            NH2NO2          N2H4            N2O            
 N2O3            N2O4            N2O5            N3              N3H            
 O3              AL(cr)          AL(L)           ALCL3(cr)       ALCL3(L)       
 ALH3(a)         ALN(cr)         ALN(L)          AL(OH)3(a)      AL4C3(cr)      
 C(gr)           H2O(cr)         H2O(L)          NH4CL(II)       NH4CL(III)     

 NOTE. WEIGHT FRACTION OF FUEL IN TOTAL FUELS AND OF OXIDANT IN TOTAL OXIDANTS



