problem   
    rocket  equilibrium  tcest,k=3800
  p,bar=70,
  sup,ae/at=40,
react  
  oxid=NH4CLO4(I) wt=68  t,k=300  
  fuel=AL(cr) wt=18  t,k=300  
  fuel=HTPB  wt=14  t,k=300  
    h,kj/mol=-58  C 7.075 H 10.65 O 0.223 N 0.063 
output  
    plot p t cp gam 
end
