problem   
    rocket  equilibrium  tcest,k=3800
  p,bar=70,
react  
  oxid=NH4CLO4(I) wt=85  t,k=300  
  fuel=HTPB  wt=15  t,k=300  
    h,kj/mol=-58  C 7.075 H 10.65 O 0.223 N 0.063 
output  
    plot p t cp gam 
end
